{
    "Armor": [
        {
            "Name": "Starting Armor",
            "Health": 3,
            "Resistance": 3,
            "UpgradeInfo": "Health: +3 \nResistance: +3",
            "Image": "tinpickaxeicon",
            "Cost": {
                "Dirt": 0,
                "Stone": 0,
                "Tin": 0,
                "Copper": 0,
                "Iron": 0,
                "Silver": 0,
                "Gold": 0,
                "Platinum": 0,
                "Obsidian": 0,
                "Diamond": 0
            }
        },
        {
            "Name": "Wooden Armor",
            "Health": 6,
            "Resistance": 4.5,
            "UpgradeInfo": "Health: +3 \nResistance: +1.5",
            "Image": "WoodenArmor",
            "Cost": {
                "Dirt": 10,
                "Stone": 100,
                "Tin": 50,
                "Copper": 1,
                "Iron": 0,
                "Silver": 0,
                "Gold": 0,
                "Platinum": 0,
                "Obsidian": 0,
                "Diamond": 0
            }
        },
        {
            "Name": "Tin Armor",
            "Health": 15,
            "Resistance": 7,
            "UpgradeInfo": "Health: +9 \nResistance: +2.5",
            "Image": "TinArmor",
            "Cost": {
                "Dirt": 1,
                "Stone": 500,
                "Tin": 250,
                "Copper": 0,
                "Iron": 0,
                "Silver": 0,
                "Gold": 0,
                "Platinum": 0,
                "Obsidian": 0,
                "Diamond": 0
            }
        },
        {
            "Name": "Tin Armorv2",
            "Health": 27,
            "Resistance": 10,
            "UpgradeInfo": "Health: +12 \nResistance: +3",
            "Image": "TinArmor",
            "Cost": {
                "Dirt": 0,
                "Stone": 800,
                "Tin": 500,
                "Copper": 0,
                "Iron": 0,
                "Silver": 0,
                "Gold": 0,
                "Platinum": 0,
                "Obsidian": 0,
                "Diamond": 0
            }
        }
    ],
    "Inventory": [
        {
            "Name": "Leaf Bag",
            "Slots": 10,
            "UpgradeInfo": "Slots: +10",
            "Image": "Leafbag",
            "Cost": {
                "Dirt": 0,
                "Stone": 0,
                "Tin": 0,
                "Copper": 0,
                "Iron": 0,
                "Silver": 0,
                "Gold": 0,
                "Platinum": 0,
                "Obsidian": 0,
                "Diamond": 0
            }
        },
        {
            "Name": "Cloth Bag",
            "Slots": 20,
            "UpgradeInfo": "Slots: +10",
            "Image": "Clothbag",
            "Cost": {
                "Dirt": 0,
                "Stone": 75,
                "Tin": 50,
                "Copper": 0,
                "Iron": 0,
                "Silver": 0,
                "Gold": 0,
                "Platinum": 0,
                "Obsidian": 0,
                "Diamond": 0
            }
        },
        {
            "Name": "Leather Bag",
            "Slots": 30,
            "UpgradeInfo": "Slots: +10",
            "Image": "Leatherbag",
            "Cost": {
                "Dirt": 0,
                "Stone": 500,
                "Tin": 300,
                "Copper": 0,
                "Iron": 0,
                "Silver": 0,
                "Gold": 0,
                "Platinum": 0,
                "Obsidian": 0,
                "Diamond": 0
            }
        },
        {
            "Name": "Leather Bag lv2",
            "Slots": 40,
            "UpgradeInfo": "Slots: +10",
            "Image": "Leatherbag",
            "Cost": {
                "Dirt": 0,
                "Stone": 1000,
                "Tin": 600,
                "Copper": 0,
                "Iron": 0,
                "Silver": 0,
                "Gold": 0,
                "Platinum": 0,
                "Obsidian": 0,
                "Diamond": 0
            }
        }
    ],
    "Pickaxe": [
        {
            "Name": "Starting Pickaxe",
            "Speed": 1.0,
            "Damage": 1,
            "UpgradeInfo": "Speed: +1 \nDamage: +1",
            "Image": "Stonepickaxeicon",
            "Cost": {
                "Dirt": 0,
                "Stone": 0,
                "Tin": 0,
                "Copper": 0,
                "Iron": 0,
                "Silver": 0,
                "Gold": 0,
                "Platinum": 0,
                "Obsidian": 0,
                "Diamond": 0
            }
        },
        {
            "Name": "Stone Pickaxe",
            "Speed": 2.25,
            "Damage": 4.5,
            "UpgradeInfo": "Speed: +1.25 \nDamage: +3.5",
            "Image": "Stonepickaxeicon",
            "Cost": {
                "Dirt": 0,
                "Stone": 50,
                "Tin": 0,
                "Copper": 0,
                "Iron": 0,
                "Silver": 0,
                "Gold": 0,
                "Platinum": 0,
                "Obsidian": 0,
                "Diamond": 0
            }
        },
        {
            "Name": "Tin Pickaxe",
            "Speed": 4,
            "Damage": 9,
            "UpgradeInfo": "Speed: +1.75 \nDamage: 4.5",
            "Image": "Tinpickaxeicon",
            "Cost": {
                "Dirt": 0,
                "Stone": 500,
                "Tin": 200,
                "Copper": 0,
                "Iron": 0,
                "Silver": 0,
                "Gold": 0,
                "Platinum": 0,
                "Obsidian": 0,
                "Diamond": 0
            }
        },
        {
            "Name": "Tin Pickaxev2",
            "Speed": 6,
            "Damage": 15,
            "UpgradeInfo": "Speed: +2 \nDamage: +6",
            "Image": "Tinpickaxeicon",
            "Cost": {
                "Dirt": 0,
                "Stone": 800,
                "Tin": 600,
                "Copper": 0,
                "Iron": 0,
                "Silver": 0,
                "Gold": 0,
                "Platinum": 0,
                "Obsidian": 0,
                "Diamond": 0
            }
        },
        {
            "Name": "Copper Pickaxe",
            "Speed": 8.5,
            "Damage": 25,
            "UpgradeInfo": "Speed: +2.5 \nDamage: +10",
            "Image": "Copperpickaxeicon",
            "Cost": {
                "Dirt": 0,
                "Stone": 800,
                "Tin": 600,
                "Copper": 0,
                "Iron": 0,
                "Silver": 0,
                "Gold": 0,
                "Platinum": 0,
                "Obsidian": 0,
                "Diamond": 0
            }
        },
        {
            "Name": "Copper Pickaxev2",
            "Speed": 11.5,
            "Damage": 38,
            "UpgradeInfo": "Speed: +3 \nDamage: +13",
            "Image": "Copperpickaxeicon",
            "Cost": {
                "Dirt": 0,
                "Stone": 800,
                "Tin": 600,
                "Copper": 0,
                "Iron": 0,
                "Silver": 0,
                "Gold": 0,
                "Platinum": 0,
                "Obsidian": 0,
                "Diamond": 0
            }
        },
        {
            "Name": "Silver Pickaxe",
            "Speed": 15,
            "Damage": 53,
            "UpgradeInfo": "Speed: +3.5 \nDamage: +15",
            "Image": "Silverpickaxeicon",
            "Cost": {
                "Dirt": 0,
                "Stone": 800,
                "Tin": 600,
                "Copper": 0,
                "Iron": 0,
                "Silver": 0,
                "Gold": 0,
                "Platinum": 0,
                "Obsidian": 0,
                "Diamond": 0
            }
        },
        {
            "Name": "Silver Pickaxev2",
            "Speed": 19,
            "Damage": 71,
            "UpgradeInfo": "Speed: +4 \nDamage: +18",
            "Image": "Silverpickaxeicon",
            "Cost": {
                "Dirt": 0,
                "Stone": 800,
                "Tin": 600,
                "Copper": 0,
                "Iron": 0,
                "Silver": 0,
                "Gold": 0,
                "Platinum": 0,
                "Obsidian": 0,
                "Diamond": 0
            }
        },
        {
            "Name": "Gold Pickaxe",
            "Speed": 25,
            "Damage": 96,
            "UpgradeInfo": "Speed: +6 \nDamage: +25",
            "Image": "Goldpickaxeicon",
            "Cost": {
                "Dirt": 0,
                "Stone": 800,
                "Tin": 600,
                "Copper": 0,
                "Iron": 0,
                "Silver": 0,
                "Gold": 0,
                "Platinum": 0,
                "Obsidian": 0,
                "Diamond": 0
            }
        },
        {
            "Name": "Gold Pickaxev2",
            "Speed": 30,
            "Damage": 124,
            "UpgradeInfo": "Speed: +5 \nDamage: +28",
            "Image": "Goldpickaxeicon",
            "Cost": {
                "Dirt": 0,
                "Stone": 800,
                "Tin": 600,
                "Copper": 0,
                "Iron": 0,
                "Silver": 0,
                "Gold": 0,
                "Platinum": 0,
                "Obsidian": 0,
                "Diamond": 0
            }
        },
        {
            "Name": "Platinum Pickaxe",
            "Speed": 37,
            "Damage": 159,
            "UpgradeInfo": "Speed: +7 \nDamage: +35",
            "Image": "Platinumpickaxeicon",
            "Cost": {
                "Dirt": 0,
                "Stone": 800,
                "Tin": 600,
                "Copper": 0,
                "Iron": 0,
                "Silver": 0,
                "Gold": 0,
                "Platinum": 0,
                "Obsidian": 0,
                "Diamond": 0
            }
        },
        {
            "Name": "Platinum Pickaxev2",
            "Speed": 45,
            "Damage": 199,
            "UpgradeInfo": "Speed: +8 \nDamage: +40",
            "Image": "Platinumpickaxeicon",
            "Cost": {
                "Dirt": 0,
                "Stone": 800,
                "Tin": 600,
                "Copper": 0,
                "Iron": 0,
                "Silver": 0,
                "Gold": 0,
                "Platinum": 0,
                "Obsidian": 0,
                "Diamond": 0
            }
        },
        {
            "Name": "Obsidium Pickaxe",
            "Speed": 55,
            "Damage": 249,
            "UpgradeInfo": "Speed: +10 \nDamage: +50",
            "Image": "Obsidiumpickaxeicon",
            "Cost": {
                "Dirt": 0,
                "Stone": 800,
                "Tin": 600,
                "Copper": 0,
                "Iron": 0,
                "Silver": 0,
                "Gold": 0,
                "Platinum": 0,
                "Obsidian": 0,
                "Diamond": 0
            }
        },
        {
            "Name": "Obsidium Pickaxev2",
            "Speed": 67,
            "Damage": 300,
            "UpgradeInfo": "Speed: +12 \nDamage: +51",
            "Image": "Obsidiumpickaxeicon",
            "Cost": {
                "Dirt": 0,
                "Stone": 800,
                "Tin": 600,
                "Copper": 0,
                "Iron": 0,
                "Silver": 0,
                "Gold": 0,
                "Platinum": 0,
                "Obsidian": 0,
                "Diamond": 0
            }
        },
        {
            "Name": "Tin Pickaxev2",
            "Speed": 1.0,
            "Damage": 7,
            "UpgradeInfo": "Speed: x7 \nDamage: x10",
            "Image": "Tinpickaxeicon",
            "Cost": {
                "Dirt": 0,
                "Stone": 800,
                "Tin": 600,
                "Copper": 0,
                "Iron": 0,
                "Silver": 0,
                "Gold": 0,
                "Platinum": 0,
                "Obsidian": 0,
                "Diamond": 0
            }
        },
        {
            "Name": "Tin Pickaxev2",
            "Speed": 1.0,
            "Damage": 7,
            "UpgradeInfo": "Speed: x7 \nDamage: x10",
            "Image": "Tinpickaxeicon",
            "Cost": {
                "Dirt": 0,
                "Stone": 800,
                "Tin": 600,
                "Copper": 0,
                "Iron": 0,
                "Silver": 0,
                "Gold": 0,
                "Platinum": 0,
                "Obsidian": 0,
                "Diamond": 0
            }
        },
        {
            "Name": "Tin Pickaxev2",
            "Speed": 1.0,
            "Damage": 7,
            "UpgradeInfo": "Speed: x7 \nDamage: x10",
            "Image": "Tinpickaxeicon",
            "Cost": {
                "Dirt": 0,
                "Stone": 800,
                "Tin": 600,
                "Copper": 0,
                "Iron": 0,
                "Silver": 0,
                "Gold": 0,
                "Platinum": 0,
                "Obsidian": 0,
                "Diamond": 0
            }
        },
        {
            "Name": "Tin Pickaxev2",
            "Speed": 1.0,
            "Damage": 7,
            "UpgradeInfo": "Speed: x7 \nDamage: x10",
            "Image": "Tinpickaxeicon",
            "Cost": {
                "Dirt": 0,
                "Stone": 800,
                "Tin": 600,
                "Copper": 0,
                "Iron": 0,
                "Silver": 0,
                "Gold": 0,
                "Platinum": 0,
                "Obsidian": 0,
                "Diamond": 0
            }
        },
        {
            "Name": "Tin Pickaxev2",
            "Speed": 1.0,
            "Damage": 7,
            "UpgradeInfo": "Speed: x7 \nDamage: x10",
            "Image": "Tinpickaxeicon",
            "Cost": {
                "Dirt": 0,
                "Stone": 800,
                "Tin": 600,
                "Copper": 0,
                "Iron": 0,
                "Silver": 0,
                "Gold": 0,
                "Platinum": 0,
                "Obsidian": 0,
                "Diamond": 0
            }
        },
        {
            "Name": "Tin Pickaxev2",
            "Speed": 1.0,
            "Damage": 7,
            "UpgradeInfo": "Speed: x7 \nDamage: x10",
            "Image": "Tinpickaxeicon",
            "Cost": {
                "Dirt": 0,
                "Stone": 800,
                "Tin": 600,
                "Copper": 0,
                "Iron": 0,
                "Silver": 0,
                "Gold": 0,
                "Platinum": 0,
                "Obsidian": 0,
                "Diamond": 0
            }
        },
        {
            "Name": "Tin Pickaxev2",
            "Speed": 1.0,
            "Damage": 7,
            "UpgradeInfo": "Speed: x7 \nDamage: x10",
            "Image": "Tinpickaxeicon",
            "Cost": {
                "Dirt": 0,
                "Stone": 800,
                "Tin": 600,
                "Copper": 0,
                "Iron": 0,
                "Silver": 0,
                "Gold": 0,
                "Platinum": 0,
                "Obsidian": 0,
                "Diamond": 0
            }
        },
        {
            "Name": "Tin Pickaxev2",
            "Speed": 1.0,
            "Damage": 7,
            "UpgradeInfo": "Speed: x7 \nDamage: x10",
            "Image": "Tinpickaxeicon",
            "Cost": {
                "Dirt": 0,
                "Stone": 800,
                "Tin": 600,
                "Copper": 0,
                "Iron": 0,
                "Silver": 0,
                "Gold": 0,
                "Platinum": 0,
                "Obsidian": 0,
                "Diamond": 0
            }
        }
    ],
    "Sword": [
        {
            "Name": "Starting Sword",
            "Speed": 1.0,
            "Damage": 1,
            "UpgradeInfo": "Speed: +1 \nDamage: +1",
            "Image": "tinpickaxeicon",
            "Cost": {
                "Dirt": 0,
                "Stone": 0,
                "Tin": 0,
                "Copper": 0,
                "Iron": 0,
                "Silver": 0,
                "Gold": 0,
                "Platinum": 0,
                "Obsidian": 0,
                "Diamond": 0
            }
        },
        {
            "Name": "Sharp Knife",
            "Speed": 3.0,
            "Damage": 6,
            "UpgradeInfo": "Speed: +2 \nDamage: +5",
            "Image": "SharpKnife",
            "Cost": {
                "Dirt": 0,
                "Stone": 100,
                "Tin": 20,
                "Copper": 0,
                "Iron": 0,
                "Silver": 0,
                "Gold": 0,
                "Platinum": 0,
                "Obsidian": 0,
                "Diamond": 0
            }
        },
        {
            "Name": "Rusty Sword",
            "Speed": 7.0,
            "Damage": 13,
            "UpgradeInfo": "Speed: +4 \nDamage: +7",
            "Image": "RustySword",
            "Cost": {
                "Dirt": 0,
                "Stone": 300,
                "Tin": 175,
                "Copper": 0,
                "Iron": 0,
                "Silver": 0,
                "Gold": 0,
                "Platinum": 0,
                "Obsidian": 0,
                "Diamond": 0
            }
        },
        {
            "Name": "Jagged Sword",
            "Speed": 12,
            "Damage": 23,
            "UpgradeInfo": "Speed: +5 \nDamage: +10",
            "Image": "JaggedSword",
            "Cost": {
                "Dirt": 0,
                "Stone": 1000,
                "Tin": 700,
                "Copper": 0,
                "Iron": 0,
                "Silver": 0,
                "Gold": 0,
                "Platinum": 0,
                "Obsidian": 0,
                "Diamond": 0
            }
        }
    ],
    "iArmor": 0,
    "iInventory": 0,
    "iPickaxe": 0,
    "iSword": 0
}